32
0.0021 260.5
0.0708 261.25
0.1396 263.5
0.2083 266.5
0.2771 270
0.3458 273.75
0.4146 276.5
0.4833 278
0.5521 278.5
0.6208 277.5
0.6896 275
0.7583 271.75
0.8271 268
0.8958 264.75
0.9646 262.25
1.0333 260.5
1.1021 260.5
1.1708 261.75
1.2396 264.25
1.3083 267.75
1.3771 271.25
1.4458 274.75
1.5146 277
1.5833 278.25
1.6521 278
1.7208 276.75
1.7896 274
1.8583 270.5
1.9271 267
1.9958 264
2.0646 261.5
2.1333 260.5
32
0.0062 260.5
0.0750 261.25
0.1437 263.5
0.2125 266.75
0.2812 270.5
0.3500 273.75
0.4188 276.5
0.4875 278
0.5562 278.5
0.6250 277.25
0.6937 275
0.7625 271.5
0.8312 268
0.9000 264.5
0.9688 262
1.0375 260.75
1.1062 260.75
1.1750 262
1.2437 264.5
1.3125 268
1.3812 271.5
1.4500 274.5
1.5188 277
1.5875 278.25
1.6562 278
1.7250 276.5
1.7938 274
1.8625 270.5
1.9312 267
2.0000 263.5
2.0688 261.5
2.1375 260.5
32
0.0104 260.5
0.0792 261.5
0.1479 263.5
0.2167 267
0.2854 270.5
0.3542 274
0.4229 276.75
0.4917 278.25
0.5604 278.5
0.6292 277.25
0.6979 274.75
0.7667 271.25
0.8354 267.75
0.9042 264.5
0.9729 262
1.0417 260.75
1.1104 260.75
1.1792 262
1.2479 264.75
1.3167 268
1.3854 271.75
1.4542 275
1.5229 277.25
1.5917 278.25
1.6604 278
1.7292 276.5
1.7979 273.75
1.8667 270.25
1.9354 266.5
2.0042 263.75
2.0729 261.5
2.1417 260.5
32
0.0146 260.5
0.0833 261.5
0.1521 264
0.2208 267.25
0.2896 271
0.3583 274.25
0.4271 276.75
0.4958 278.25
0.5646 278.5
0.6333 277
0.7021 274.5
0.7708 271
0.8396 267.75
0.9083 264.25
0.9771 262
1.0458 260.5
1.1146 260.75
1.1833 262.25
1.2521 265
1.3208 268.25
1.3896 272 
1.4583 275 
1.5271 277.25
1.5958 278.25
1.6646 278
1.7333 276.25
1.8021 273.25
1.8708 270
1.9396 266.5
2.0083 263.5
2.0771 261.5
2.1458 260.5
32 
0.0187 260.5
0.0875 261.75
0.1562 264
0.2250 267.5
0.2938 271
0.3625 274.5
0.4312 277
0.5000 278.5
0.5687 278.5
0.6375 277
0.7062 274.25
0.7750 271
0.8438 267.25
0.9125 264
0.9812 261.75
1.0500 260.5
1.1187 260.75
1.1875 262.25
1.2562 265
1.3250 268.75
1.3938 272.25
1.4625 275.25
1.5312 277.5
1.6000 278.25
1.6688 278 
1.7375 276.25
1.8062 273.25
1.8750 269.75
1.9438 266.25
2.0125 263.25
2.0812 261.25
2.1500 260.5